02/05/20 09:37

10.1 (3 points):
Score += 3

10.3 (3 points):
Score += 3

10.4 (3 points):
Score += 3

Completion (1 points):
Score += 1

Total score: 10/10 = 100.0%

Excellent!

-------------------------------------------------------------------------------

