11/02/19 14:49

5.5 (3 points):
Score += 3

5.6 (3 points):
Score += 3

5.9 (3 points):
Score += 3

Total score: 9/9 = 100.0%

Excellent!

-------------------------------------------------------------------------------

