02/04/20 20:13

9.18 (3 points):
Score += 3

9.19 (3 points):
Score += 3

9.20 (3 points):
Score += 3

Completion (1 points):
Score += 1

Total score: 10/10 = 100.0%

Excellent!

-------------------------------------------------------------------------------

